# Filename: HMM-Keywords.tab
# Location: $ABDBROOT/tables
#
# Author: Tilmann Weber
#
#    $Id: HMM-Keywords.tab,v 1.11 2006/11/22 09:37:05 weber Exp $
#
# The Filename of the ReqFunc Table can be provided here.
# Please provide the complete path to the file
# Otherwise the filename is predicted using the RegEx
# $ReqFucTable = $Keyword-Table;
# $ReqFuncTable =~ s/Keywords/reqFunc/
#
# ReqFuncTable:	/home/weber/CLUSEAN/lib/HMM-reqFunc-GetClust.tab
#
# This table contains the assignment keywords
#
# Structure:
# RegEx \t AssignmentScore
#
# ALL RegExes HAVE TO BE IN LOWERCASE

3beta_hsd	1
\babm\b	1
abhydrolase	1
abc_membrane	1
#abc2_membrane	1
#abc-3		1
#abc_tran	1
adh_short	1
acetyltransf	1
acps	1
acyl-coa_dh	1
acyl_transf	1
adh_zinc_n	1
aminotran	1
amp-binding	1
aph	1
asn_synthase	1
bac_luciferase	1
chal_sti_synt_c	1
chal_sti_synt_n	1
coesterase	1
condensation	1
cyclase_polyket	1
degt_dnrj_eryc1	0.5
dtdp_sugar_isom	1
#duf24\b	1
ech	1
epimerase	0.75
gere	1
glyco_tran	1
glycos_tran	1
gatase	1
hexose_dehydrat	1
hiska	1
hth_arac	1
ketoacyl-synt	1
lyase	1
methyltransf	1
monooxygenase	1
mbth	1
neg_reg	1
omt_n	1
p450	1
pfkb	1
polyketide_cyc	1
pp-binding	1
response_reg	1
rrnaad		1
rrna_methylase	1
sugar_tr	1
tetr	1
thioesterase	1
trans_reg	1
trp_halogenase 1
#ubie_methyltran	1
