ACP,939265.085,513,1830.926
acetyl-transferase,2339.076,98,23.868
TE,3587219.647,163,22007.482
AT,2446.909,132,18.537
KS,4864711.49,356,13664.920
mbth_like,88922.062,44,2020.956
NRPS,50089132.468,872,57441.666
KR,169.444,35,4.841
P450oxy,99545.699,260,382.868
unassigned,23499999.7650001,235,99999.999
PKSIII,149139.885,6,24856.648
ppan-transferase,150209.347,65,2310.913
GT,67832.489,174,389.842
MT,65324.031,125,522.592
cyclase,313154.219,161,1945.057
res-RNA-MT,23.034,20,1.152
res-acetyl-transferase,20561.372,79,260.271
PKSI,231402874.334,843,274499.258
Sug_KR,1029.403,48,21.446
Sug_DH,11474.488,195,58.844
unclassified,3842.07899999971,12711,0.302
halogenase,13935.899,95,146.694
KSb,230.08,7,32.869